<?xml version="1.0" encoding="UTF-8"?>
<svg width="9px" height="7px" viewBox="0 0 9 7" version="1.1" xmlns="http://www.w3.org/2000/svg" xmlns:xlink="http://www.w3.org/1999/xlink">
    <!-- Generator: Sketch 51 (57462) - http://www.bohemiancoding.com/sketch -->
    <title>Rectangle 32</title>
    <desc>Created with Sketch.</desc>
    <defs></defs>
    <g id="Page-1" stroke="none" stroke-width="1" fill="none" fill-rule="evenodd">
        <g id="1024" transform="translate(-123.000000, -352.000000)">
            <rect fill="#F3F7FA" x="0" y="0" width="1024" height="1328"></rect>
            <g id="Filters" transform="translate(103.000000, 161.000000)" stroke="#3E9CE8" stroke-linecap="round" stroke-linejoin="round" stroke-width="2">
                <g id="Filter-–-Stop-Quantity-Copy" transform="translate(0.000000, 115.000000)">
                    <polyline id="Rectangle-32" transform="translate(24.500000, 79.500000) scale(-1, 1) rotate(-270.000000) translate(-24.500000, -79.500000) " points="24.5 76.5 26.5 78.5 22.5 82.5"></polyline>
                </g>
            </g>
        </g>
    </g>
</svg>